{
  "builder": "cmake",
  "kill": "gelek-vanilla",
  "libraries": {
    "terps": {
      "builder": "custom",
      "prebuild": "cp -rf $SRC_DIR/* $BUILD_DIR",
      "build": "cmake -H. -Bbuild -DGLK=remglk && make -C build"
    },
    "blorblib": {
      "builder": "custom",
      "prebuild": "cp -rf $SRC_DIR/* $BUILD_DIR",
      "build": "make"
    },
    "remglk": {
      "builder": "custom",
      "prebuild": "cp -rf $SRC_DIR/* $BUILD_DIR",
      "build": "make Make.remglk libremglk.a"
    },
    "babel": {
      "builder": "custom",
      "prebuild": "cp -rf $SRC_DIR/* $BUILD_DIR",
      "build": "make babel"
    }
  },
  "dependencies_target": [
	"unzip"
  ],
  "install_bin": [
    "/usr/bin/unzip"
  ]
}
