<?xml version="1.0" encoding="UTF-8" standalone="no"?>
<svg xmlns="http://www.w3.org/2000/svg" version="1.1" xml:space="preserve" height="512" width="512" enable-background="new 0 0 100 100" y="0px" x="0px" viewBox="0 0 512 512"><defs><linearGradient id="a" y2="512" gradientUnits="userSpaceOnUse" y1="88.45" x2="512" x1="94.3"><stop stop-color="#4d4246" offset="0"/><stop stop-color="#75646a" offset="1"/></linearGradient></defs><style type="text/css">
	.st0{fill:#010202;}
</style><rect style="enable-background:accumulate" height="512" width="512" y="0" x="0" fill="url(#a)"/><g fill="#fff2f6" transform="matrix(5.259,0,0,4.81,-6.927,15.92)"><path d="m60.5 31v-4h3v-5.5h-27v5.5h3v4a28 28 0 1 0 21 0zm-10.5 48a22 22 0 0 1 -22 -22c0-12.15 5.85 3 18 3s26-15.15 26-3a22 22 0 0 1 -22 22z"/><rect rx="2" ry="2" height="6" width="21" y="13.5" x="39.5"/></g></svg>
